1/ТПАСКС/lab5/lab5/lab5_2/simulation/qsim/lab5_2.msim.vcd
$comment
	File created using the following command:
		vcd file lab5_2.msim.vcd -direction
$end
$date
	Mon Feb 01 15:39:34 2021
$end
$version
	ModelSim Version 2020.1
$end
$timescale
	1ps
$end

$scope module lab5_2_vlg_vec_tst $end
$var reg 1 ! clk $end
$var reg 8 " d [7:0] $end
$var reg 1 # key $end
$var wire 1 $ led [7] $end
$var wire 1 % led [6] $end
$var wire 1 & led [5] $end
$var wire 1 ' led [4] $end
$var wire 1 ( led [3] $end
$var wire 1 ) led [2] $end
$var wire 1 * led [1] $end
$var wire 1 + led [0] $end

$scope module i1 $end
$var wire 1 , gnd $end
$var wire 1 - vcc $end
$var wire 1 . unknown $end
$var tri1 1 / devclrn $end
$var tri1 1 0 devpor $end
$var tri1 1 1 devoe $end
$var wire 1 2 led[0]~output_o $end
$var wire 1 3 led[1]~output_o $end
$var wire 1 4 led[2]~output_o $end
$var wire 1 5 led[3]~output_o $end
$var wire 1 6 led[4]~output_o $end
$var wire 1 7 led[5]~output_o $end
$var wire 1 8 led[6]~output_o $end
$var wire 1 9 led[7]~output_o $end
$var wire 1 : clk~input_o $end
$var wire 1 ; clk~inputclkctrl_outclk $end
$var wire 1 < d[0]~input_o $end
$var wire 1 = key~input_o $end
$var wire 1 > d[7]~input_o $end
$var wire 1 ? d[5]~input_o $end
$var wire 1 @ d[1]~input_o $end
$var wire 1 A output_rgstr|val~2_combout $end
$var wire 1 B cnt|Add0~0_combout $end
$var wire 1 C cnt|Add0~1 $end
$var wire 1 D cnt|Add0~2_combout $end
$var wire 1 E cnt|Add0~3 $end
$var wire 1 F cnt|Add0~4_combout $end
$var wire 1 G cnt|divcounter~0_combout $end
$var wire 1 H cnt|Add0~5 $end
$var wire 1 I cnt|Add0~6_combout $end
$var wire 1 J cnt|Add0~7 $end
$var wire 1 K cnt|Add0~8_combout $end
$var wire 1 L cnt|Add0~9 $end
$var wire 1 M cnt|Add0~10_combout $end
$var wire 1 N cnt|Add0~11 $end
$var wire 1 O cnt|Add0~12_combout $end
$var wire 1 P cnt|Add0~13 $end
$var wire 1 Q cnt|Add0~14_combout $end
$var wire 1 R cnt|Add0~15 $end
$var wire 1 S cnt|Add0~16_combout $end
$var wire 1 T cnt|Add0~17 $end
$var wire 1 U cnt|Add0~18_combout $end
$var wire 1 V cnt|Add0~19 $end
$var wire 1 W cnt|Add0~20_combout $end
$var wire 1 X cnt|Add0~21 $end
$var wire 1 Y cnt|Add0~22_combout $end
$var wire 1 Z cnt|Add0~23 $end
$var wire 1 [ cnt|Add0~24_combout $end
$var wire 1 \ cnt|Add0~25 $end
$var wire 1 ] cnt|Add0~26_combout $end
$var wire 1 ^ cnt|Add0~27 $end
$var wire 1 _ cnt|Add0~28_combout $end
$var wire 1 ` cnt|Add0~29 $end
$var wire 1 a cnt|Add0~30_combout $end
$var wire 1 b cnt|Add0~31 $end
$var wire 1 c cnt|Add0~32_combout $end
$var wire 1 d cnt|Add0~33 $end
$var wire 1 e cnt|Add0~34_combout $end
$var wire 1 f cnt|Add0~35 $end
$var wire 1 g cnt|Add0~36_combout $end
$var wire 1 h cnt|Add0~37 $end
$var wire 1 i cnt|Add0~38_combout $end
$var wire 1 j cnt|Add0~39 $end
$var wire 1 k cnt|Add0~40_combout $end
$var wire 1 l cnt|Add0~41 $end
$var wire 1 m cnt|Add0~42_combout $end
$var wire 1 n cnt|Add0~43 $end
$var wire 1 o cnt|Add0~44_combout $end
$var wire 1 p cnt|Add0~45 $end
$var wire 1 q cnt|Add0~46_combout $end
$var wire 1 r cnt|Add0~47 $end
$var wire 1 s cnt|Add0~48_combout $end
$var wire 1 t cnt|Add0~49 $end
$var wire 1 u cnt|Add0~50_combout $end
$var wire 1 v cnt|Equal0~7_combout $end
$var wire 1 w cnt|Equal0~0_combout $end
$var wire 1 x cnt|Equal0~1_combout $end
$var wire 1 y cnt|Equal0~2_combout $end
$var wire 1 z cnt|Equal0~3_combout $end
$var wire 1 { cnt|Equal0~4_combout $end
$var wire 1 | cnt|Equal0~5_combout $end
$var wire 1 } cnt|Equal0~6_combout $end
$var wire 1 ~ cnt|Equal0~8_combout $end
$var wire 1 !! cnt|ena~q $end
$var wire 1 "! output_rgstr|val[1]~1_combout $end
$var wire 1 #! d[2]~input_o $end
$var wire 1 $! output_rgstr|val~3_combout $end
$var wire 1 %! d[3]~input_o $end
$var wire 1 &! output_rgstr|val~4_combout $end
$var wire 1 '! d[4]~input_o $end
$var wire 1 (! output_rgstr|val~5_combout $end
$var wire 1 )! output_rgstr|val~6_combout $end
$var wire 1 *! d[6]~input_o $end
$var wire 1 +! output_rgstr|val~7_combout $end
$var wire 1 ,! output_rgstr|val~8_combout $end
$var wire 1 -! output_rgstr|val~0_combout $end
$var wire 1 .! output_rgstr|val [7] $end
$var wire 1 /! output_rgstr|val [6] $end
$var wire 1 0! output_rgstr|val [5] $end
$var wire 1 1! output_rgstr|val [4] $end
$var wire 1 2! output_rgstr|val [3] $end
$var wire 1 3! output_rgstr|val [2] $end
$var wire 1 4! output_rgstr|val [1] $end
$var wire 1 5! output_rgstr|val [0] $end
$var wire 1 6! cnt|divcounter [24] $end
$var wire 1 7! cnt|divcounter [23] $end
$var wire 1 8! cnt|divcounter [22] $end
$var wire 1 9! cnt|divcounter [21] $end
$var wire 1 :! cnt|divcounter [20] $end
$var wire 1 ;! cnt|divcounter [19] $end
$var wire 1 <! cnt|divcounter [18] $end
$var wire 1 =! cnt|divcounter [17] $end
$var wire 1 >! cnt|divcounter [16] $end
$var wire 1 ?! cnt|divcounter [15] $end
$var wire 1 @! cnt|divcounter [14] $end
$var wire 1 A! cnt|divcounter [13] $end
$var wire 1 B! cnt|divcounter [12] $end
$var wire 1 C! cnt|divcounter [11] $end
$var wire 1 D! cnt|divcounter [10] $end
$var wire 1 E! cnt|divcounter [9] $end
$var wire 1 F! cnt|divcounter [8] $end
$var wire 1 G! cnt|divcounter [7] $end
$var wire 1 H! cnt|divcounter [6] $end
$var wire 1 I! cnt|divcounter [5] $end
$var wire 1 J! cnt|divcounter [4] $end
$var wire 1 K! cnt|divcounter [3] $end
$var wire 1 L! cnt|divcounter [2] $end
$var wire 1 M! cnt|divcounter [1] $end
$var wire 1 N! cnt|divcounter [0] $end
$upscope $end
$upscope $end
$enddefinitions $end
#0
$dumpvars
0!
b1 "
0#
0+
0*
0)
0(
0'
0&
0%
0$
0,
1-
x.
1/
10
11
02
03
04
05
06
07
08
09
0:
0;
1<
0=
0>
0?
0@
0A
1B
0C
0D
1E
0F
0G
0H
0I
1J
0K
0L
0M
1N
0O
0P
0Q
1R
0S
0T
0U
1V
0W
0X
0Y
1Z
0[
0\
0]
1^
0_
0`
0a
1b
0c
0d
0e
1f
0g
0h
0i
1j
0k
0l
0m
1n
0o
0p
0q
1r
0s
0t
0u
1v
1w
0x
1y
1z
0{
0|
0}
0~
0!!
0"!
0#!
0$!
0%!
0&!
0'!
0(!
0)!
0*!
0+!
0,!
0-!
05!
04!
03!
02!
01!
00!
0/!
0.!
0N!
0M!
0L!
0K!
0J!
0I!
0H!
0G!
0F!
0E!
0D!
0C!
0B!
0A!
0@!
0?!
0>!
0=!
0<!
0;!
0:!
09!
08!
07!
06!
$end
#20000
1!
1:
1;
1N!
1C
0B
1D
#40000
0!
0:
0;
#60000
1!
1:
1;
1M!
0N!
0E
0C
0D
1B
1F
1E
1D
0F
1G
0G
#80000
0!
0:
0;
#100000
1#
1!
1=
1:
1;
1"!
1-!
1N!
1C
0B
0E
0D
1F
1x
1G
1{
1|
1}
1~
0G
#120000
0!
0:
0;
#140000
1!
1:
1;
1!!
0M!
0N!
15!
12
1E
0C
1+
1D
1B
0F
0x
0D
0{
0|
0}
0~
#160000
0!
0:
0;
#170000
0#
0=
0-!
1A
#180000
1!
1:
1;
0!!
1N!
05!
14!
13
02
0"!
1C
0+
1*
0B
0A
1$!
1D
#200000
0!
0:
0;
#220000
1!
1:
1;
1M!
0N!
0E
0C
0D
1B
1F
1E
1D
0F
1G
0G
#240000
0!
0:
0;
#260000
1!
1:
1;
1N!
1C
0B
0E
0D
1F
1x
1G
1{
1|
1}
1~
0G
#280000
0!
0:
0;
#300000
1!
1:
1;
1!!
0M!
0N!
1"!
1E
0C
1D
1B
0F
0x
0D
0{
0|
0}
0~
#320000
0!
0:
0;
#340000
1!
1:
1;
0!!
1N!
13!
04!
03
14
0"!
1C
1)
0*
0B
1&!
0$!
1D
#360000
0!
0:
0;
#380000
1!
1:
1;
1M!
0N!
0E
0C
0D
1B
1F
1E
1D
0F
1G
0G
#400000
0!
0:
0;
#420000
1!
1:
1;
1N!
1C
0B
0E
0D
1F
1x
1G
1{
1|
1}
1~
0G
#440000
0!
0:
0;
#460000
1!
1:
1;
1!!
0M!
0N!
1"!
1E
0C
1D
1B
0F
0x
0D
0{
0|
0}
0~
#480000
0!
0:
0;
#500000
1!
1:
1;
0!!
1N!
12!
03!
04
15
0"!
1C
1(
0)
0B
1(!
0&!
1D
#520000
0!
0:
0;
#540000
1!
1:
1;
1M!
0N!
0E
0C
0D
1B
1F
1E
1D
0F
1G
0G
#560000
0!
0:
0;
#580000
1!
1:
1;
1N!
1C
0B
0E
0D
1F
1x
1G
1{
1|
1}
1~
0G
#600000
0!
0:
0;
#620000
1!
1:
1;
1!!
0M!
0N!
1"!
1E
0C
1D
1B
0F
0x
0D
0{
0|
0}
0~
#640000
0!
0:
0;
#660000
1!
1:
1;
0!!
1N!
11!
02!
05
16
0"!
1C
1'
0(
0B
1)!
0(!
1D
#680000
0!
0:
0;
#700000
1!
1:
1;
1M!
0N!
0E
0C
0D
1B
1F
1E
1D
0F
1G
0G
#720000
0!
0:
0;
#740000
1!
1:
1;
1N!
1C
0B
0E
0D
1F
1x
1G
1{
1|
1}
1~
0G
#760000
0!
0:
0;
#780000
1!
1:
1;
1!!
0M!
0N!
1"!
1E
0C
1D
1B
0F
0x
0D
0{
0|
0}
0~
#800000
0!
0:
0;
#820000
1!
1:
1;
0!!
1N!
10!
01!
06
17
0"!
1C
1&
0'
0B
1+!
0)!
1D
#840000
0!
0:
0;
#860000
1!
1:
1;
1M!
0N!
0E
0C
0D
1B
1F
1E
1D
0F
1G
0G
#880000
0!
0:
0;
#900000
1!
1:
1;
1N!
1C
0B
0E
0D
1F
1x
1G
1{
1|
1}
1~
0G
#920000
0!
0:
0;
#940000
1!
1:
1;
1!!
0M!
0N!
1"!
1E
0C
1D
1B
0F
0x
0D
0{
0|
0}
0~
#960000
0!
0:
0;
#980000
1!
1:
1;
0!!
1N!
1/!
00!
07
18
0"!
1C
1%
0&
0B
1,!
0+!
1D
