1/ТПАСКС/lab5/lab5/lab5_1/simulation/qsim/lab5_1.msim.vcd
$comment
	File created using the following command:
		vcd file lab5_1.msim.vcd -direction
$end
$date
	Mon Feb 01 15:28:51 2021
$end
$version
	ModelSim Version 2020.1
$end
$timescale
	1ps
$end

$scope module lab5_1_vlg_vec_tst $end
$var reg 1 ! arst $end
$var reg 1 " clk $end
$var reg 4 # da [3:0] $end
$var reg 4 $ db [3:0] $end
$var reg 1 % ena $end
$var wire 1 & result [7] $end
$var wire 1 ' result [6] $end
$var wire 1 ( result [5] $end
$var wire 1 ) result [4] $end
$var wire 1 * result [3] $end
$var wire 1 + result [2] $end
$var wire 1 , result [1] $end
$var wire 1 - result [0] $end

$scope module i1 $end
$var wire 1 . gnd $end
$var wire 1 / vcc $end
$var wire 1 0 unknown $end
$var tri1 1 1 devclrn $end
$var tri1 1 2 devpor $end
$var tri1 1 3 devoe $end
$var wire 1 4 result[0]~output_o $end
$var wire 1 5 result[1]~output_o $end
$var wire 1 6 result[2]~output_o $end
$var wire 1 7 result[3]~output_o $end
$var wire 1 8 result[4]~output_o $end
$var wire 1 9 result[5]~output_o $end
$var wire 1 : result[6]~output_o $end
$var wire 1 ; result[7]~output_o $end
$var wire 1 < clk~input_o $end
$var wire 1 = clk~inputclkctrl_outclk $end
$var wire 1 > db[1]~input_o $end
$var wire 1 ? arst~input_o $end
$var wire 1 @ arst~inputclkctrl_outclk $end
$var wire 1 A ena~input_o $end
$var wire 1 B da[0]~input_o $end
$var wire 1 C db[0]~input_o $end
$var wire 1 D output_rg|q[0]~8_combout $end
$var wire 1 E da[1]~input_o $end
$var wire 1 F output_rg|q[0]~9 $end
$var wire 1 G output_rg|q[1]~10_combout $end
$var wire 1 H db[3]~input_o $end
$var wire 1 I db[2]~input_o $end
$var wire 1 J da[2]~input_o $end
$var wire 1 K mult_|Mult0|auto_generated|op_1~0_combout $end
$var wire 1 L output_rg|q[1]~11 $end
$var wire 1 M output_rg|q[2]~12_combout $end
$var wire 1 N mult_|Mult0|auto_generated|cs2a[1]~0_combout $end
$var wire 1 O da[3]~input_o $end
$var wire 1 P mult_|Mult0|auto_generated|op_1~1 $end
$var wire 1 Q mult_|Mult0|auto_generated|op_1~2_combout $end
$var wire 1 R output_rg|q[2]~13 $end
$var wire 1 S output_rg|q[3]~14_combout $end
$var wire 1 T mult_|Mult0|auto_generated|op_1~3 $end
$var wire 1 U mult_|Mult0|auto_generated|op_1~4_combout $end
$var wire 1 V output_rg|q[3]~15 $end
$var wire 1 W output_rg|q[4]~16_combout $end
$var wire 1 X mult_|Mult0|auto_generated|op_1~5 $end
$var wire 1 Y mult_|Mult0|auto_generated|op_1~6_combout $end
$var wire 1 Z output_rg|q[4]~17 $end
$var wire 1 [ output_rg|q[5]~18_combout $end
$var wire 1 \ mult_|Mult0|auto_generated|op_1~7 $end
$var wire 1 ] mult_|Mult0|auto_generated|op_1~8_combout $end
$var wire 1 ^ output_rg|q[5]~19 $end
$var wire 1 _ output_rg|q[6]~20_combout $end
$var wire 1 ` mult_|Mult0|auto_generated|op_1~9 $end
$var wire 1 a mult_|Mult0|auto_generated|op_1~10_combout $end
$var wire 1 b output_rg|q[6]~21 $end
$var wire 1 c output_rg|q[7]~22_combout $end
$var wire 1 d output_rg|q [7] $end
$var wire 1 e output_rg|q [6] $end
$var wire 1 f output_rg|q [5] $end
$var wire 1 g output_rg|q [4] $end
$var wire 1 h output_rg|q [3] $end
$var wire 1 i output_rg|q [2] $end
$var wire 1 j output_rg|q [1] $end
$var wire 1 k output_rg|q [0] $end
$var wire 1 l mult_|Mult0|auto_generated|le5a [4] $end
$var wire 1 m mult_|Mult0|auto_generated|le5a [3] $end
$var wire 1 n mult_|Mult0|auto_generated|le5a [2] $end
$var wire 1 o mult_|Mult0|auto_generated|le5a [1] $end
$var wire 1 p mult_|Mult0|auto_generated|le5a [0] $end
$var wire 1 q input_rg_2|q [3] $end
$var wire 1 r input_rg_2|q [2] $end
$var wire 1 s input_rg_2|q [1] $end
$var wire 1 t input_rg_2|q [0] $end
$var wire 1 u mult_|Mult0|auto_generated|le4a [5] $end
$var wire 1 v mult_|Mult0|auto_generated|le4a [4] $end
$var wire 1 w mult_|Mult0|auto_generated|le4a [3] $end
$var wire 1 x mult_|Mult0|auto_generated|le4a [2] $end
$var wire 1 y mult_|Mult0|auto_generated|le4a [1] $end
$var wire 1 z mult_|Mult0|auto_generated|le4a [0] $end
$var wire 1 { input_rg_1|q [3] $end
$var wire 1 | input_rg_1|q [2] $end
$var wire 1 } input_rg_1|q [1] $end
$var wire 1 ~ input_rg_1|q [0] $end
$var wire 1 !! mult_|Mult0|auto_generated|le3a [5] $end
$var wire 1 "! mult_|Mult0|auto_generated|le3a [4] $end
$var wire 1 #! mult_|Mult0|auto_generated|le3a [3] $end
$var wire 1 $! mult_|Mult0|auto_generated|le3a [2] $end
$var wire 1 %! mult_|Mult0|auto_generated|le3a [1] $end
$var wire 1 &! mult_|Mult0|auto_generated|le3a [0] $end
$upscope $end
$upscope $end
$enddefinitions $end
#0
$dumpvars
1!
0"
b11 #
b1101 $
1%
0-
0,
0+
0*
0)
0(
0'
0&
0.
1/
x0
11
12
13
04
05
06
07
08
09
0:
0;
0<
0=
0>
1?
1@
1A
1B
1C
0D
1E
0F
0G
1H
1I
0J
0K
1L
0M
0N
0O
0P
0Q
0R
0S
1T
0U
1V
0W
0X
0Y
0Z
0[
1\
0]
1^
0_
0`
1a
0b
0c
0k
0j
0i
0h
0g
0f
0e
0d
0p
0o
0n
0m
zl
0t
0s
0r
0q
0z
0y
0x
0w
0v
0u
0~
0}
0|
0{
0&!
0%!
0$!
0#!
0"!
z!!
$end
#20000
1"
1<
1=
1r
1q
1}
1t
1~
1v
1o
1p
1N
1u
1%!
1&!
1]
1Y
1w
1x
0a
1K
1W
1G
1D
0\
0Y
1U
1_
1[
1c
1M
1`
0]
1Z
0[
0W
1a
0_
1[
0c
#40000
0"
0<
0=
#60000
1"
1<
1=
1f
1i
1j
1k
14
15
16
19
1(
1+
1,
1-
#80000
0"
0<
0=
#100000
b1011 #
b1111 #
b1001 $
b1000 $
1"
0C
0I
1J
1O
1<
1=
1{
1|
0r
0t
1m
0v
0w
1n
0x
0N
1z
0%!
0&!
0a
1\
1Y
0U
1R
0M
0G
0D
0`
1]
0^
0Z
1c
0[
1W
1S
1a
1b
1^
1[
0b
1_
0c
#120000
0"
0<
0=
#140000
1"
1<
1=
1e
1g
1h
0i
0j
0k
04
05
06
17
18
1:
1'
1)
1*
0+
0,
0-
#160000
0"
0<
0=
#180000
1"
1<
1=
#200000
b1101 #
b1100 #
b1010 $
b100 #
b1110 $
b1111 $
0"
1C
1>
1I
0B
0E
0O
0<
0=
#220000
1"
1<
1=
0{
1r
0}
1t
0~
1s
0m
1"!
1#!
0o
0p
0u
0z
1x
1y
1%!
1&!
1b
0^
1c
0_
0[
1D
1X
1Q
0Y
0x
0y
0K
0R
0V
1F
0W
1M
0S
1G
0D
0c
1_
1Y
1V
1^
0X
1U
0L
1S
1[
0M
1W
0G
0^
0Y
0[
0_
1M
1^
1_
1[
0_
#240000
0"
0<
0=
#260000
1"
1<
1=
0e
1i
16
0:
0'
1+
#280000
0"
0<
0=
#300000
b111 $
b0 #
b110 $
1"
0J
0C
0H
1<
1=
0|
0q
0t
0n
1$!
1v
1u
1z
1P
0a
1w
1x
1y
1R
0M
0T
0Q
1Y
1X
0U
0V
1c
1U
0^
0\
0Y
0S
0[
1Z
1`
0]
1^
0W
1_
1[
0^
1a
0b
0[
1b
0_
0c
#320000
0"
0<
0=
#340000
1"
1<
1=
0f
0g
0h
0i
06
07
08
09
0(
0)
0*
0+
#360000
0"
0<
0=
#380000
1"
1<
1=
#400000
b1000 #
b10 $
b11 $
0"
1C
0I
1O
0<
0=
#420000
1"
1<
1=
1{
0r
1t
0v
0#!
1N
0u
0z
0`
1]
1T
1Q
0x
0y
0a
0P
1K
0R
1M
1a
0X
1V
0Q
1R
1_
1S
1c
0M
1\
1Y
0Z
0c
1W
0]
0_
#440000
0"
0<
0=
#460000
1"
1<
1=
1g
1h
17
18
1)
1*
#480000
0"
0<
0=
#500000
0%
b1010 #
b1011 #
b1011 $
b1111 #
b1010 $
1"
0A
0C
1H
1B
1E
1J
1<
1=
#520000
0"
0<
0=
#540000
1"
1<
1=
#560000
0"
0<
0=
#580000
1"
1<
1=
#600000
b1000 $
b111 #
1%
b110 #
b10 #
b1001 $
0"
0B
0J
0O
1C
0>
1A
0<
0=
#620000
1"
1<
1=
0{
1q
1}
0s
1v
0w
0"!
1o
1u
1z
1y
0$!
0b
1^
0N
0F
0&!
1c
1_
1[
1D
1]
0U
0a
1w
0V
1L
1M
0S
0c
0_
1G
0D
0\
0Y
1_
1c
0M
1`
0]
0[
1a
0_
0c
#640000
0"
0<
0=
#660000
1"
1<
1=
0h
1j
15
07
0*
1,
#680000
0"
0<
0=
#700000
0!
b1101 $
b0 #
b1111 $
b1 #
b1110 $
1"
0?
1B
0E
0C
1>
1I
1<
0@
1=
0t
0}
0q
0j
0g
08
05
0%!
0o
1x
0v
0u
0z
0,
0)
1\
1Y
1U
0`
1]
0a
0w
0x
0y
0K
0R
0G
1M
0]
1Z
1a
0Y
0U
1V
1[
0W
1_
1c
0M
0Z
0_
0c
0[
#720000
0"
0<
0=
#740000
1"
1<
1=
#760000
0"
0<
0=
#780000
1"
1<
1=
#800000
1!
b1010 $
b11 #
b10 #
0"
1?
0B
1E
0I
0<
1@
0=
#820000
1"
1<
1=
1q
1}
1s
1v
1o
1u
1z
1%!
1"!
1#!
1N
1&!
1c
1_
1[
1D
1]
1Y
0a
1w
1x
1K
1U
1Q
1F
1M
1G
0D
1b
0^
0\
0Y
1X
0U
1R
0L
0_
0[
0c
0M
1W
1S
0G
1`
0]
1^
1Y
0V
1c
1_
1[
0W
0S
1M
1a
0b
0^
0[
1W
1b
0_
0c
#840000
0"
0<
0=
#860000
1"
1<
1=
1g
1i
16
18
1)
1+
#880000
0"
0<
0=
#900000
b1010 #
b1110 #
b1000 $
b1100 $
b1111 #
1"
0>
1I
1B
1J
1O
1<
1=
1{
1|
1r
1~
0s
1m
0w
0"!
0#!
1n
0x
1p
0z
0%!
0&!
0b
1^
0F
1c
1_
1[
1D
0a
0Y
0X
0Q
1]
1Z
1L
0W
0M
0D
0c
0_
1\
1Y
1V
0R
1c
1S
1_
1M
0]
0^
0Z
0[
1W
0S
1^
1[
0_
#920000
0"
0<
0=
#940000
1"
1<
1=
1d
1f
19
1;
1&
1(
#960000
0"
0<
0=
#980000
1"
1<
1=
